{
  "api": {
    "baseUrl": "https://api.collective2.com/world/apiv3"
  },

  "paths": {
    "imagesRoot": "/assets/pictures/",
    "userImageFolder": "/assets/pictures/users/"
  },

  "localization": {
    "languages": [
      {"code": "hr", "name": "HR", "culture": "hr-HR"},
      {"code": "en", "name": "EN", "culture": "en-EN"}
    ],
    "defaultLanguage": "hr"
  },

  "notifications": {
    "options": {
      "timeOut": 5000,
      "showProgressBar": true,
      "pauseOnHover": true,
      "position": ["top", "right"],
      "theClass": "sy-notification"
    },
    "________unauthorizedEndpoints": ["api/home"],
    "__________notFoundEndpoints": [ "api/home", "api/login" ]
  },
  
  "debugging": false
}
